{
  "project_info": {
    "project_number": "593559398426",
    "firebase_url": "https://home-maids-644cd.firebaseio.com",
    "project_id": "home-maids-644cd",
    "storage_bucket": "home-maids-644cd.appspot.com"
  },
  "client": [
    {
      "client_info": {
        "mobilesdk_app_id": "1:593559398426:android:502d52336e69015c",
        "android_client_info": {
          "package_name": "com.home_maids.app"
        }
      },
      "oauth_client": [
        {
          "client_id": "593559398426-gqf96fl76osrgo4otcns05f360f69mbh.apps.googleusercontent.com",
          "client_type": 1,
          "android_info": {
            "package_name": "com.home_maids.app",
            "certificate_hash": "6af6c18cb09d9ff5ee2cb1f2747af0b70c77321e"
          }
        },
        {
          "client_id": "593559398426-b8dprb0h0h06j9gp783iepggea7m3ocf.apps.googleusercontent.com",
          "client_type": 1,
          "android_info": {
            "package_name": "com.home_maids.app",
            "certificate_hash": "73d3b7332b07810d59746d8686959655139c592f"
          }
        },
        {
          "client_id": "593559398426-heo0qrhg96122l1q0esk15t07pfrpmcv.apps.googleusercontent.com",
          "client_type": 3
        }
      ],
      "api_key": [
        {
          "current_key": "AIzaSyCZpj0eCHI_csmfkdsJtC-2BxH5F4tJ8lo"
        }
      ],
      "services": {
        "appinvite_service": {
          "other_platform_oauth_client": [
            {
              "client_id": "593559398426-heo0qrhg96122l1q0esk15t07pfrpmcv.apps.googleusercontent.com",
              "client_type": 3
            },
            {
              "client_id": "593559398426-amf1rmnu8l2sgkoegpp3h8jbm0qs95vu.apps.googleusercontent.com",
              "client_type": 2,
              "ios_info": {
                "bundle_id": "com.homemaids.app"
              }
            }
          ]
        }
      }
    }
  ],
  "configuration_version": "1"
}