{
  "locale": "عربي",
  "SKIP": "تخطي",
  "GET_STARTED": "البدء",
  "Best_companies": "أفضل الشركات",
  "We_make_sure_to_thoroughly_study_the_demand": "نتأكد من دراسة شاملة لطلب الشركة المرتبطة ب ",
  "TrustMaids": "TrustMaids",
  "which_must_be_the_best_and_most_efficient_in_its_region": ", التي يجب أن تكون الأفضل والأكثر كفاءة في منطقتها.",
  "Trustworthy": "جدير بالثقة",
  "We_all_know_when_it_comes_to_trust": "نعلم جميعا أنه عندما يتعلق الأمر بالثقة ، فإن الأمر مهم جدا. عند ",
  "we_have_the_most_trustworthy_maids": " نتوفر على الخادمات الأكثر جدارة بالثقة.",
  "It_is_convenient": "ملائم",
  "Choose_the_service_that_suits_your_budget": "اختر الخدمة التي تناسب ميزانيتك ، والأقرب ، والأرخص ، أو حتى الأكثر شعبية في السوق.",
  "JAN": "يناير",
  "FEB": "فبراير",
  "MAR": "مارس",
  "APR": "أبريل",
  "MAY": "ماي",
  "JUN": "يونيو",
  "JUL": "يوليوز",
  "AUG": "غشت",
  "SEP": "شتنبر",
  "OCT": "أكتوبر",
  "NOV": "نونبر",
  "DEC": "دجنبر",
  "SUN": "الأحد",
  "MON": "الاثنين",
  "TUE": "الثلاثاء",
  "WED": "الأربعاء",
  "THU": "الخميس",
  "FRI": "الجمعة",
  "SAT": "السبت",
  "DASHBOARD": "الرئيسية",
  "ANALYTICS_FROM": "إحصائيات",
  "LAST_YEAR": "السنة الفارطة",
  "LAST_MONTH": "الشهر الفارط",
  "LAST_ORDERS": "آخر الطلبات",
  "VIEW_ALL": "كل الطلبات",
  "ORDERS": "الطلبات",
  "Latest_first": "الأخير أولا",
  "Delayed": "متأخر",
  "Canceled": "ملغي",
  "Declined": "مرفوض",
  "Complete": "منجز",
  "Reviews": "مراجعة",
  "ORDER_N": "طلب رقم",
  "ORDERED_SERVICES": "الخدمات المطلوبة",
  "DATE": "التاريخ",
  "TIME": "الوقت",
  "N_OF_MAIDS": "عدد الخادمات",
  "DURATION": "المدة",
  "PAYMENT_METHOD": "طريقة الدفع",
  "PRICE": "الثمن",
  "Leave_a_feedback": "ترك تعليق",
  "Decline_this_order": "رفض هذا الطلب",
  "Talk_to": "التحدث إلى",
  "An_error_happened": "حدث خطأ",
  "An_error_happened_when_trying_to_update_the_status_of_this_order": "حدث خطأ عند محاولة تحديث هذا الطلب. حاول مرة اخرى.",
  "Ok": "تم",
  "TAKE_THIS_ORDER": "قبول الطلب",
  "ORDER_IN_PROGRESS": "طلب في طور الإنجاز",
  "ORDER_DELAYED": "طلب متأخر",
  "ORDER_COMPLETED": "طلب منجز",
  "ORDER_CANCELED": "طلب ملغى",
  "ORDER_DECLINED": "طلب مرفوض",
  "DECLINE_REASON": "سبب الرفض",
  "DUE_TO_VIOLATION_OF_A_POLICY": "بسبب انتهاك للسياسة",
  "Other_reason": "سبب آخر",
  "SUBMIT": "إرسال",
  "SUBMITTED": "مرسل",
  "NOTIFICATIONS": "الإخطارات",
  "Notifications": "إخطارات",
  "MESSAGES": "الرسائل",
  "New_Messages": "رسائل جديدة",
  "ARCHIVED_MESSAGES": "الرسائل المؤرشفة",
  "Unarchive": "إلغاء الأرشفة",
  "Archive": "أرشفة",
  "Send": "إرسال",
  "Type_a_message": "أكتب رسالة",
  "SETTINGS": "الإعدادات",
  "Profile": "الملف الشخصي",
  "Service_pricing": "الخدمات و الأثمنة",
  "Security": "الحماية",
  "Please_make_sure_to_disable_your_availability": "يرجى التأكد من تعطيل توفرك بمجرد عدم تمكنك من تحمل طلبات أخرى",
  "Availability": "التوفر",
  "REVIEWS": "المراجعات",
  "PROFILE": "الملف الشخصي",
  "Since": "منذ",
  "Jobs_Done": "الطلبات المنجزة",
  "Rating": "التقييم",
  "Available_Balance": "الرصيد",
  "Company_name": "اسم الشركة",
  "Email_address": "عنوان البريد الإلكتروني",
  "Phone_number": "رقم الهاتف",
  "Address": "العنوان",
  "Description": "الوصف",
  "UPDATE": "تحديث",
  "UPDATED": "محدث",
  "SERVICES_PRICING": "الخدمات و الأثمنة",
  "Price": "السعر",
  "Per_hour": "للساعة",
  "Discount": "خصم",
  "New_Price": "الثمن الجديد",
  "PLEASE_SELECT_FROM_THESES_SERVICES_THOSE_YOU_PROVIDE": "قم رجاء باختيار الخدمات التي توفرها",
  "SECURITY": "الحماية",
  "PASSWORD": "كلمة السر",
  "New_password": "كلمة السر الجديدة",
  "The_passwords_dont_match": "كلمات السر غير متطابقة",
  "SIGN_IN_WITH_GOOGLE": "تسجيل الدخول بگوگل",
  "OR_SIGN_IN_WITH_EMAIL": "أو تسجيل الدخول بالبريد الالكتروني",
  "Email": "البريد الالكتروني",
  "Invalid_email_address": "عنوان البريد الالكتروني غير صحيح.",
  "Password": "كلمة السر",
  "The_password_must_contain_at_least_6_characters": "يجب أن تحتوي كلمة السر على ٦ أحرف على الأقل.",
  "Forgot_password": "نسيت كلمة المرور ؟",
  "LOGIN": "تسجيل الدخول",
  "Dont_have_an_account": "ليس لديك حساب ؟ ",
  "SIGN_UP": "تسجيل",
  "QUICK_SEARCH": "بحث سريع",
  "Signin_error": "خطأ عند تسجيل الدخول",
  "Incorrect_email_or_password": "عنوان البريد الالكتروني أو كلمة السر غير صحيح.",
  "How_long_do_you_need_our_maid_to_stay": "كم من الوقت تحتاج الخادمة للبقاء (بالساعات) ؟",
  "How_many_maids_do_you_need": "كم من خادمة تحتاج ؟",
  "Do_you_require_cleaning_materials": "هل تحتاج لمواد التنظيف ؟",
  "CHECK_AVAILABILITY": "بحث",
  "Signup_error": "خطأ عندالتسجيل",
  "An_unexpected_error_happened_Please_try_again": "لقد وقع خطأ غير متوقر. حاول مرة أخرى.",
  "IN_ORDER_TO_COMPLETE_THIS_WE_WILL_NEED_SOME_DETAILS": "من أجل إتمام التسجيل نحتاج لمعطيات أكثر.",
  "By_creating_an_account_you_agree_to_our": "بإنشاء حساب فإنك توافق على\\n",
  "Terms_of_service": "شروط الخدمة",
  "and": " و ",
  "Privacy_policy": "سياسة الخصوصية الخاصة بنا.",
  "CONTINUE": "استمر",
  "An_error_occurred": "حدث خطأ",
  "An_error_occurred_while_trying_to_authenticate_you_in_with_Google": "حدث خطأ أثناء محاولة تسجيل الدخول بگوگل. حاول مرة أخرى.",
  "SIGN_UP_WITH_GOOGLE": "التسجيل بگوگل",
  "OR_SIGN_UP_WITH_EMAIL": "أو التسجيل بالبريد الالكتروني",
  "First_name": "الإسم الشخصي",
  "Last_name": "الإسم العائلي",
  "Phone_N": "رقم الهاتف",
  "SELECT_A_ZONE": "اختيار المنطقة",
  "Select_city": "الختيار المدينة",
  "Please_select_a_city": "قم رجاء باختيار مدينة.",
  "City": "المدينة",
  "Zone": "المنطقة",
  "Please_select_a_city_first": "قم رجاء باختيار مدينة أولا.",
  "VALIDATE": "تم",
  "Type_your_city": "اكتب مدينتك",
  "Type_your_zone_in": "اكتب منطقتك في",
  "SELECT_A_COMPANY": "اختيار الشركة",
  "Name_AZ": "الإسم أ-ي",
  "Lowest_Price": "السعر الأدنى",
  "Highest_Price": "السعر الأعلى",
  "No_result_found": "لم يتم العثور على نتائج",
  "Error": "خطأ",
  "You_should_write_a_review_if_you_want_to_leave_a_negative_feedback": "يجب عليك كتابة مراجعة إذا كنت تريد ترك تقييم سلبي.",
  "An_unexpected_error_happened_Please_try_submitting_your_review_again": "حدث خطأ غير متوقع. يرجى محاولة إرسال مراجعتك مرة أخرى.",
  "LEAVE_A_FEEDBACK": "ترك تقييم",
  "NEGATIVE_FEEDBACK": "تقييم سلبي",
  "Unpaid": "غير مؤدى",
  "EDIT_PROFILE": "تعديل الملف الشخصي",
  "Member_since": "عضو منذ",
  "Completed_Orders": "الطلبات المنجزة",
  "Canceled_Orders": "الطلبات الملغية",
  "Full_name": "الاسم الكامل",
  "PICK_DATE_TIME": "اختيار التاريخ و الوقت",
  "BOOK_NOW": "احجز الآن",
  "Su": "أحد",
  "Mo": "اثنين",
  "Tu": "ثلاثاء",
  "We": "أربعاء",
  "Th": "خميس",
  "Fr": "جمعة",
  "Sa": "سبت",
  "DETAILS": "التفاصيل",
  "price_per_hour_is": "السعر للساعة",
  "TOTAL": "المجموع",
  "CHECKOUT": "الدفع",
  "HOURS": "ساعة",
  "us": "الشركة",
  "TOTAL_EARN": "مجموع المداخيل",
  "You_dont_have_any_order_yet": "ليس لديك أي طلب. هل ترغب في القيام بطلب جديد ؟",
  "NEW_ORDER": "طلب جديد"

}